EESchema Schematic File Version 4
EELAYER 30 0
EELAYER END
$Descr A4 11693 8268
encoding utf-8
Sheet 1 1
Title ""
Date ""
Rev ""
Comp ""
Comment1 ""
Comment2 ""
Comment3 ""
Comment4 ""
$EndDescr
$Comp
L DLx2416:DLx2416 U1
U 1 1 613CC626
P 2750 1650
F 0 "U1" H 3300 1850 50  0000 L CNN
F 1 "DLx2416" H 3250 1650 50  0000 L CNN
F 2 "DLx2416:DLx2416" H 2750 1750 50  0001 C CNN
F 3 "" H 2750 1750 50  0001 C CNN
	1    2750 1650
	1    0    0    -1  
$EndComp
$Comp
L DLx2416:DLx2416 U2
U 1 1 613CD3DB
P 4750 1650
F 0 "U2" H 5300 1850 50  0000 L CNN
F 1 "DLx2416" H 5250 1650 50  0000 L CNN
F 2 "DLx2416:DLx2416" H 4750 1750 50  0001 C CNN
F 3 "" H 4750 1750 50  0001 C CNN
	1    4750 1650
	1    0    0    -1  
$EndComp
$Comp
L DLx2416:DLx2416 U3
U 1 1 613CE34F
P 6750 1650
F 0 "U3" H 7300 1850 50  0000 L CNN
F 1 "DLx2416" H 7250 1650 50  0000 L CNN
F 2 "DLx2416:DLx2416" H 6750 1750 50  0001 C CNN
F 3 "" H 6750 1750 50  0001 C CNN
	1    6750 1650
	1    0    0    -1  
$EndComp
$Comp
L DLx2416:DLx2416 U4
U 1 1 613CF08C
P 8750 1650
F 0 "U4" H 9300 1850 50  0000 L CNN
F 1 "DLx2416" H 9250 1650 50  0000 L CNN
F 2 "DLx2416:DLx2416" H 8750 1750 50  0001 C CNN
F 3 "" H 8750 1750 50  0001 C CNN
	1    8750 1650
	1    0    0    -1  
$EndComp
Entry Wire Line
	2150 2450 2250 2350
Wire Wire Line
	2250 2350 2250 2050
Entry Wire Line
	2250 2450 2350 2350
Wire Wire Line
	2350 2350 2350 2050
Entry Wire Line
	2000 2450 2100 2350
Wire Wire Line
	2100 2350 2100 2050
Entry Wire Line
	2400 2450 2500 2350
Wire Wire Line
	2500 2350 2500 2050
Entry Wire Line
	2550 2450 2650 2350
Wire Wire Line
	2650 2350 2650 2050
Entry Wire Line
	2650 2450 2750 2350
Wire Wire Line
	2750 2350 2750 2050
Entry Wire Line
	2750 2450 2850 2350
Wire Wire Line
	2850 2350 2850 2050
Entry Wire Line
	2850 2450 2950 2350
Wire Wire Line
	2950 2350 2950 2050
Entry Wire Line
	2950 2450 3050 2350
Wire Wire Line
	3050 2350 3050 2050
Entry Wire Line
	3050 2450 3150 2350
Wire Wire Line
	3150 2350 3150 2050
Entry Wire Line
	3150 2450 3250 2350
Wire Wire Line
	3250 2350 3250 2050
Entry Wire Line
	3250 2450 3350 2350
Wire Wire Line
	3350 2350 3350 2050
Entry Wire Line
	3350 2450 3450 2350
Wire Wire Line
	3450 2350 3450 2050
Entry Wire Line
	3500 2450 3600 2350
Wire Wire Line
	3600 2350 3600 2050
Text Label 2250 2350 1    50   ~ 0
CUE
Text Label 2350 2350 1    50   ~ 0
CU
Text Label 2500 2350 1    50   ~ 0
~WR1
Text Label 2650 2350 1    50   ~ 0
A1
Text Label 2100 2350 1    50   ~ 0
~CLR
Text Label 2750 2350 1    50   ~ 0
A0
Text Label 2850 2350 1    50   ~ 0
D0
Text Label 2950 2350 1    50   ~ 0
D1
Text Label 3050 2350 1    50   ~ 0
D2
Text Label 3150 2350 1    50   ~ 0
D3
Text Label 3250 2350 1    50   ~ 0
D4
Text Label 3350 2350 1    50   ~ 0
D5
Text Label 3450 2350 1    50   ~ 0
D6
Text Label 3600 2350 1    50   ~ 0
~BL
Entry Wire Line
	4150 2450 4250 2350
Wire Wire Line
	4250 2350 4250 2050
Entry Wire Line
	4250 2450 4350 2350
Wire Wire Line
	4350 2350 4350 2050
Entry Wire Line
	4000 2450 4100 2350
Wire Wire Line
	4100 2350 4100 2050
Entry Wire Line
	4400 2450 4500 2350
Wire Wire Line
	4500 2350 4500 2050
Entry Wire Line
	4550 2450 4650 2350
Wire Wire Line
	4650 2350 4650 2050
Entry Wire Line
	4650 2450 4750 2350
Wire Wire Line
	4750 2350 4750 2050
Entry Wire Line
	4750 2450 4850 2350
Wire Wire Line
	4850 2350 4850 2050
Entry Wire Line
	4850 2450 4950 2350
Wire Wire Line
	4950 2350 4950 2050
Entry Wire Line
	4950 2450 5050 2350
Wire Wire Line
	5050 2350 5050 2050
Entry Wire Line
	5050 2450 5150 2350
Wire Wire Line
	5150 2350 5150 2050
Entry Wire Line
	5150 2450 5250 2350
Wire Wire Line
	5250 2350 5250 2050
Entry Wire Line
	5250 2450 5350 2350
Wire Wire Line
	5350 2350 5350 2050
Entry Wire Line
	5350 2450 5450 2350
Wire Wire Line
	5450 2350 5450 2050
Entry Wire Line
	5500 2450 5600 2350
Wire Wire Line
	5600 2350 5600 2050
Text Label 4250 2350 1    50   ~ 0
CUE
Text Label 4350 2350 1    50   ~ 0
CU
Text Label 4500 2350 1    50   ~ 0
~WR2
Text Label 4650 2350 1    50   ~ 0
A1
Text Label 4100 2350 1    50   ~ 0
~CLR
Text Label 4750 2350 1    50   ~ 0
A0
Text Label 4850 2350 1    50   ~ 0
D0
Text Label 4950 2350 1    50   ~ 0
D1
Text Label 5050 2350 1    50   ~ 0
D2
Text Label 5150 2350 1    50   ~ 0
D3
Text Label 5250 2350 1    50   ~ 0
D4
Text Label 5350 2350 1    50   ~ 0
D5
Text Label 5450 2350 1    50   ~ 0
D6
Text Label 5600 2350 1    50   ~ 0
~BL
Entry Wire Line
	6150 2450 6250 2350
Wire Wire Line
	6250 2350 6250 2050
Entry Wire Line
	6250 2450 6350 2350
Wire Wire Line
	6350 2350 6350 2050
Entry Wire Line
	6000 2450 6100 2350
Wire Wire Line
	6100 2350 6100 2050
Entry Wire Line
	6400 2450 6500 2350
Wire Wire Line
	6500 2350 6500 2050
Entry Wire Line
	6550 2450 6650 2350
Wire Wire Line
	6650 2350 6650 2050
Entry Wire Line
	6650 2450 6750 2350
Wire Wire Line
	6750 2350 6750 2050
Entry Wire Line
	6750 2450 6850 2350
Wire Wire Line
	6850 2350 6850 2050
Entry Wire Line
	6850 2450 6950 2350
Wire Wire Line
	6950 2350 6950 2050
Entry Wire Line
	6950 2450 7050 2350
Wire Wire Line
	7050 2350 7050 2050
Entry Wire Line
	7050 2450 7150 2350
Wire Wire Line
	7150 2350 7150 2050
Entry Wire Line
	7150 2450 7250 2350
Wire Wire Line
	7250 2350 7250 2050
Entry Wire Line
	7250 2450 7350 2350
Wire Wire Line
	7350 2350 7350 2050
Entry Wire Line
	7350 2450 7450 2350
Wire Wire Line
	7450 2350 7450 2050
Entry Wire Line
	7500 2450 7600 2350
Wire Wire Line
	7600 2350 7600 2050
Text Label 6250 2350 1    50   ~ 0
CUE
Text Label 6350 2350 1    50   ~ 0
CU
Text Label 6500 2350 1    50   ~ 0
~WR3
Text Label 6650 2350 1    50   ~ 0
A1
Text Label 6100 2350 1    50   ~ 0
~CLR
Text Label 6750 2350 1    50   ~ 0
A0
Text Label 6850 2350 1    50   ~ 0
D0
Text Label 6950 2350 1    50   ~ 0
D1
Text Label 7050 2350 1    50   ~ 0
D2
Text Label 7150 2350 1    50   ~ 0
D3
Text Label 7250 2350 1    50   ~ 0
D4
Text Label 7350 2350 1    50   ~ 0
D5
Text Label 7450 2350 1    50   ~ 0
D6
Text Label 7600 2350 1    50   ~ 0
~BL
Entry Wire Line
	8150 2450 8250 2350
Wire Wire Line
	8250 2350 8250 2050
Entry Wire Line
	8250 2450 8350 2350
Wire Wire Line
	8350 2350 8350 2050
Entry Wire Line
	8000 2450 8100 2350
Wire Wire Line
	8100 2350 8100 2050
Entry Wire Line
	8400 2450 8500 2350
Wire Wire Line
	8500 2350 8500 2050
Entry Wire Line
	8550 2450 8650 2350
Wire Wire Line
	8650 2350 8650 2050
Entry Wire Line
	8650 2450 8750 2350
Wire Wire Line
	8750 2350 8750 2050
Entry Wire Line
	8750 2450 8850 2350
Wire Wire Line
	8850 2350 8850 2050
Entry Wire Line
	8850 2450 8950 2350
Wire Wire Line
	8950 2350 8950 2050
Entry Wire Line
	8950 2450 9050 2350
Wire Wire Line
	9050 2350 9050 2050
Entry Wire Line
	9050 2450 9150 2350
Wire Wire Line
	9150 2350 9150 2050
Entry Wire Line
	9150 2450 9250 2350
Wire Wire Line
	9250 2350 9250 2050
Entry Wire Line
	9250 2450 9350 2350
Wire Wire Line
	9350 2350 9350 2050
Entry Wire Line
	9350 2450 9450 2350
Wire Wire Line
	9450 2350 9450 2050
Entry Wire Line
	9500 2450 9600 2350
Wire Wire Line
	9600 2350 9600 2050
Text Label 8250 2350 1    50   ~ 0
CUE
Text Label 8350 2350 1    50   ~ 0
CU
Text Label 8500 2350 1    50   ~ 0
~WR4
Text Label 8650 2350 1    50   ~ 0
A1
Text Label 8100 2350 1    50   ~ 0
~CLR
Text Label 8750 2350 1    50   ~ 0
A0
Text Label 8850 2350 1    50   ~ 0
D0
Text Label 8950 2350 1    50   ~ 0
D1
Text Label 9050 2350 1    50   ~ 0
D2
Text Label 9150 2350 1    50   ~ 0
D3
Text Label 9250 2350 1    50   ~ 0
D4
Text Label 9350 2350 1    50   ~ 0
D5
Text Label 9450 2350 1    50   ~ 0
D6
Text Label 9600 2350 1    50   ~ 0
~BL
$Comp
L Device:C C2
U 1 1 613FE09E
P 2750 1150
F 0 "C2" V 2498 1150 50  0000 C CNN
F 1 "100nF" V 2589 1150 50  0000 C CNN
F 2 "Capacitor_SMD:C_0603_1608Metric_Pad1.08x0.95mm_HandSolder" H 2788 1000 50  0001 C CNN
F 3 "~" H 2750 1150 50  0001 C CNN
	1    2750 1150
	0    1    1    0   
$EndComp
$Comp
L Device:C C3
U 1 1 613FE987
P 4750 1150
F 0 "C3" V 4498 1150 50  0000 C CNN
F 1 "100nF" V 4589 1150 50  0000 C CNN
F 2 "Capacitor_SMD:C_0603_1608Metric_Pad1.08x0.95mm_HandSolder" H 4788 1000 50  0001 C CNN
F 3 "~" H 4750 1150 50  0001 C CNN
	1    4750 1150
	0    1    1    0   
$EndComp
$Comp
L Device:C C5
U 1 1 613FF1A6
P 6750 1150
F 0 "C5" V 6498 1150 50  0000 C CNN
F 1 "100nF" V 6589 1150 50  0000 C CNN
F 2 "Capacitor_SMD:C_0603_1608Metric_Pad1.08x0.95mm_HandSolder" H 6788 1000 50  0001 C CNN
F 3 "~" H 6750 1150 50  0001 C CNN
	1    6750 1150
	0    1    1    0   
$EndComp
$Comp
L Device:C C6
U 1 1 613FFB8C
P 8750 1150
F 0 "C6" V 8498 1150 50  0000 C CNN
F 1 "100nF" V 8589 1150 50  0000 C CNN
F 2 "Capacitor_SMD:C_0603_1608Metric_Pad1.08x0.95mm_HandSolder" H 8788 1000 50  0001 C CNN
F 3 "~" H 8750 1150 50  0001 C CNN
	1    8750 1150
	0    1    1    0   
$EndComp
Wire Wire Line
	2550 1250 2550 1150
Wire Wire Line
	2550 1150 2600 1150
Wire Wire Line
	2900 1150 2950 1150
Wire Wire Line
	2950 1150 2950 1250
Wire Wire Line
	4550 1250 4550 1150
Wire Wire Line
	4550 1150 4600 1150
Wire Wire Line
	4950 1250 4950 1150
Wire Wire Line
	4950 1150 4900 1150
Wire Wire Line
	6550 1250 6550 1150
Wire Wire Line
	6550 1150 6600 1150
Wire Wire Line
	6900 1150 6950 1150
Wire Wire Line
	6950 1150 6950 1250
Wire Wire Line
	8600 1150 8550 1150
Wire Wire Line
	8550 1150 8550 1250
Wire Wire Line
	8900 1150 8950 1150
Wire Wire Line
	8950 1150 8950 1250
Wire Wire Line
	4950 1150 4950 850 
Wire Wire Line
	4950 850  2950 850 
Wire Wire Line
	2950 850  2950 1150
Connection ~ 4950 1150
Connection ~ 2950 1150
Wire Wire Line
	2550 750  4550 750 
Connection ~ 2550 1150
Connection ~ 4550 1150
Wire Wire Line
	6550 750  8550 750 
Connection ~ 6550 1150
Connection ~ 8550 1150
Wire Wire Line
	6950 1150 6950 850 
Wire Wire Line
	6950 850  8950 850 
Wire Wire Line
	8950 850  8950 1150
Connection ~ 6950 1150
Connection ~ 8950 1150
Wire Wire Line
	2550 750  2550 1150
Wire Wire Line
	4550 750  4550 1150
Wire Wire Line
	6550 750  6550 1150
Wire Wire Line
	8550 750  8550 1150
$Comp
L power:GND #PWR0101
U 1 1 6146EEFC
P 5300 1200
F 0 "#PWR0101" H 5300 950 50  0001 C CNN
F 1 "GND" H 5150 1150 50  0000 C CNN
F 2 "" H 5300 1200 50  0001 C CNN
F 3 "" H 5300 1200 50  0001 C CNN
	1    5300 1200
	1    0    0    -1  
$EndComp
$Comp
L power:VCC #PWR0102
U 1 1 6146EF06
P 5300 700
F 0 "#PWR0102" H 5300 550 50  0001 C CNN
F 1 "VCC" H 5150 750 50  0000 C CNN
F 2 "" H 5300 700 50  0001 C CNN
F 3 "" H 5300 700 50  0001 C CNN
	1    5300 700 
	1    0    0    -1  
$EndComp
Wire Wire Line
	5300 700  5300 750 
Wire Wire Line
	4950 1150 5300 1150
Wire Wire Line
	5300 1150 5300 1200
Wire Wire Line
	5300 750  4550 750 
Connection ~ 4550 750 
$Comp
L power:GND #PWR0103
U 1 1 61483B6C
P 9300 1200
F 0 "#PWR0103" H 9300 950 50  0001 C CNN
F 1 "GND" H 9150 1150 50  0000 C CNN
F 2 "" H 9300 1200 50  0001 C CNN
F 3 "" H 9300 1200 50  0001 C CNN
	1    9300 1200
	1    0    0    -1  
$EndComp
$Comp
L power:VCC #PWR0104
U 1 1 61483B76
P 9300 700
F 0 "#PWR0104" H 9300 550 50  0001 C CNN
F 1 "VCC" H 9150 750 50  0000 C CNN
F 2 "" H 9300 700 50  0001 C CNN
F 3 "" H 9300 700 50  0001 C CNN
	1    9300 700 
	1    0    0    -1  
$EndComp
Wire Wire Line
	9300 700  9300 750 
Wire Wire Line
	8950 1150 9300 1150
Wire Wire Line
	9300 1150 9300 1200
Wire Wire Line
	9300 750  8550 750 
Connection ~ 8550 750 
$Comp
L power:VCC #PWR0107
U 1 1 614E5928
P 3100 2700
F 0 "#PWR0107" H 3100 2550 50  0001 C CNN
F 1 "VCC" H 3100 2850 50  0000 C CNN
F 2 "" H 3100 2700 50  0001 C CNN
F 3 "" H 3100 2700 50  0001 C CNN
	1    3100 2700
	-1   0    0    -1  
$EndComp
Wire Wire Line
	3200 3250 3200 3200
Wire Wire Line
	3200 3200 3100 3200
Connection ~ 3100 3200
Wire Wire Line
	3100 3200 3100 3250
$Comp
L Device:C C7
U 1 1 614EF313
P 2850 3200
F 0 "C7" V 2750 3350 50  0000 C CNN
F 1 "100nF" V 2750 3000 50  0000 C CNN
F 2 "Capacitor_SMD:C_0603_1608Metric_Pad1.08x0.95mm_HandSolder" H 2888 3050 50  0001 C CNN
F 3 "~" H 2850 3200 50  0001 C CNN
	1    2850 3200
	0    1    1    0   
$EndComp
$Comp
L power:GND #PWR0108
U 1 1 614F417F
P 2300 3250
F 0 "#PWR0108" H 2300 3000 50  0001 C CNN
F 1 "GND" H 2305 3077 50  0000 C CNN
F 2 "" H 2300 3250 50  0001 C CNN
F 3 "" H 2300 3250 50  0001 C CNN
	1    2300 3250
	1    0    0    -1  
$EndComp
$Comp
L MCU_Microchip_ATmega:ATmega328P-AU U5
U 1 1 61560645
P 3100 4750
F 0 "U5" H 3100 3161 50  0000 C CNN
F 1 "ATmega328P-AU" H 3100 3070 50  0000 C CNN
F 2 "Package_QFP:TQFP-32_7x7mm_P0.8mm" H 3100 4750 50  0001 C CIN
F 3 "http://ww1.microchip.com/downloads/en/DeviceDoc/ATmega328_P%20AVR%20MCU%20with%20picoPower%20Technology%20Data%20Sheet%2040001984A.pdf" H 3100 4750 50  0001 C CNN
	1    3100 4750
	1    0    0    -1  
$EndComp
$Comp
L power:GND #PWR0109
U 1 1 6156C38F
P 3100 6500
F 0 "#PWR0109" H 3100 6250 50  0001 C CNN
F 1 "GND" H 3105 6327 50  0000 C CNN
F 2 "" H 3100 6500 50  0001 C CNN
F 3 "" H 3100 6500 50  0001 C CNN
	1    3100 6500
	1    0    0    -1  
$EndComp
Wire Wire Line
	3100 6500 3100 6250
Wire Wire Line
	3700 5350 3900 5350
Text Label 3900 5350 2    50   ~ 0
D0
Text Label 3900 5450 2    50   ~ 0
D1
Text Label 3900 5650 2    50   ~ 0
D2
Wire Wire Line
	3100 2950 3100 3200
$Comp
L Device:C C8
U 1 1 615A0B84
P 2850 2950
F 0 "C8" V 2750 3100 50  0000 C CNN
F 1 "100nF" V 2750 2750 50  0000 C CNN
F 2 "Capacitor_SMD:C_0603_1608Metric_Pad1.08x0.95mm_HandSolder" H 2888 2800 50  0001 C CNN
F 3 "~" H 2850 2950 50  0001 C CNN
	1    2850 2950
	0    1    1    0   
$EndComp
Wire Wire Line
	3000 2950 3100 2950
Wire Wire Line
	3100 3200 3000 3200
Wire Wire Line
	3100 2950 3100 2700
Connection ~ 3100 2950
Wire Wire Line
	2700 2950 2300 2950
Wire Wire Line
	2300 2950 2300 3200
Wire Wire Line
	2300 3200 2700 3200
Wire Wire Line
	2300 3250 2300 3200
Connection ~ 2300 3200
Text Label 3900 5050 2    50   ~ 0
RST
Text Label 7050 3950 0    50   ~ 0
MISO
Wire Wire Line
	7050 3950 7450 3950
Text Label 7050 4150 0    50   ~ 0
SCK
Wire Wire Line
	7050 4150 7450 4150
Text Label 7050 4250 0    50   ~ 0
MOSI
Text Label 7050 4350 0    50   ~ 0
RST
$Comp
L power:GND #PWR0106
U 1 1 613F454B
P 6600 4550
F 0 "#PWR0106" H 6600 4300 50  0001 C CNN
F 1 "GND" H 6605 4377 50  0000 C CNN
F 2 "" H 6600 4550 50  0001 C CNN
F 3 "" H 6600 4550 50  0001 C CNN
	1    6600 4550
	1    0    0    -1  
$EndComp
Text Notes 7100 3800 0    50   ~ 0
ISP + UART RX
$Comp
L Connector_Generic:Conn_01x06 J1
U 1 1 613F4555
P 7650 4150
F 0 "J1" H 7738 4064 50  0000 L CNN
F 1 "Conn_01x06" H 7738 3973 50  0000 L CNN
F 2 "Connector_PinHeader_2.54mm:PinHeader_2x03_P2.54mm_Vertical" H 7650 4150 50  0001 C CNN
F 3 "~" H 7650 4150 50  0001 C CNN
F 4 "2300387" H 7650 4150 50  0001 C CNN "Farnell Ref"
	1    7650 4150
	1    0    0    -1  
$EndComp
Wire Wire Line
	6600 4000 6600 4050
Wire Wire Line
	6600 4050 7450 4050
Text Label 3900 5250 2    50   ~ 0
RX
$Comp
L power:VCC #PWR0105
U 1 1 6160FB64
P 6600 4000
F 0 "#PWR0105" H 6600 3850 50  0001 C CNN
F 1 "VCC" H 6600 4150 50  0000 C CNN
F 2 "" H 6600 4000 50  0001 C CNN
F 3 "" H 6600 4000 50  0001 C CNN
	1    6600 4000
	-1   0    0    -1  
$EndComp
Wire Wire Line
	7450 4350 7050 4350
Text Label 3950 3950 2    50   ~ 0
MISO
Text Label 3950 3850 2    50   ~ 0
MOSI
Wire Wire Line
	6850 4250 7450 4250
Text Label 6850 4250 0    50   ~ 0
RX
Text Label 3950 4050 2    50   ~ 0
SCK
$Comp
L Device:R R1
U 1 1 616611E5
P 4100 5050
F 0 "R1" V 3893 5050 50  0000 C CNN
F 1 "NC" V 3984 5050 50  0000 C CNN
F 2 "Resistor_SMD:R_0603_1608Metric_Pad0.98x0.95mm_HandSolder" V 4030 5050 50  0001 C CNN
F 3 "~" H 4100 5050 50  0001 C CNN
	1    4100 5050
	0    1    1    0   
$EndComp
$Comp
L power:VCC #PWR0110
U 1 1 61661B67
P 4350 5000
F 0 "#PWR0110" H 4350 4850 50  0001 C CNN
F 1 "VCC" H 4350 5150 50  0000 C CNN
F 2 "" H 4350 5000 50  0001 C CNN
F 3 "" H 4350 5000 50  0001 C CNN
	1    4350 5000
	-1   0    0    -1  
$EndComp
Wire Wire Line
	4350 5000 4350 5050
Wire Wire Line
	4350 5050 4250 5050
Wire Wire Line
	3700 5050 3950 5050
Wire Wire Line
	6600 4450 7450 4450
Wire Wire Line
	6600 4450 6600 4550
Wire Wire Line
	6600 4400 6600 4450
Connection ~ 6600 4450
Wire Wire Line
	6600 4100 6600 4050
Connection ~ 6600 4050
$Comp
L Device:Crystal_GND24_Small Y1
U 1 1 616B4BEA
P 4850 4200
F 0 "Y1" V 4650 4200 50  0000 L CNN
F 1 "16 MHz" V 4750 3900 50  0000 L CNN
F 2 "Crystal:Crystal_SMD_3225-4Pin_3.2x2.5mm" H 4850 4200 50  0001 C CNN
F 3 "~" H 4850 4200 50  0001 C CNN
	1    4850 4200
	0    1    1    0   
$EndComp
Wire Wire Line
	3700 4150 4400 4150
Wire Wire Line
	4400 4150 4400 4050
Wire Wire Line
	4400 4050 4850 4050
Wire Wire Line
	3700 4250 4400 4250
Wire Wire Line
	4400 4250 4400 4350
Wire Wire Line
	4400 4350 4850 4350
Wire Wire Line
	4850 4300 4850 4350
Wire Wire Line
	4850 4100 4850 4050
$Comp
L power:GND #PWR0111
U 1 1 617235E3
P 4700 4200
F 0 "#PWR0111" H 4700 3950 50  0001 C CNN
F 1 "GND" V 4705 4027 50  0000 C CNN
F 2 "" H 4700 4200 50  0001 C CNN
F 3 "" H 4700 4200 50  0001 C CNN
	1    4700 4200
	0    1    1    0   
$EndComp
Wire Wire Line
	4700 4200 4750 4200
$Comp
L Device:C C10
U 1 1 6172B0EB
P 5200 4050
F 0 "C10" V 5250 4150 50  0000 C CNN
F 1 "??pF" V 5250 3850 50  0000 C CNN
F 2 "Capacitor_SMD:C_0603_1608Metric_Pad1.08x0.95mm_HandSolder" H 5238 3900 50  0001 C CNN
F 3 "~" H 5200 4050 50  0001 C CNN
	1    5200 4050
	0    -1   -1   0   
$EndComp
$Comp
L Device:C C11
U 1 1 6172BACB
P 5200 4350
F 0 "C11" V 5100 4500 50  0000 C CNN
F 1 "??pF" V 5100 4150 50  0000 C CNN
F 2 "Capacitor_SMD:C_0603_1608Metric_Pad1.08x0.95mm_HandSolder" H 5238 4200 50  0001 C CNN
F 3 "~" H 5200 4350 50  0001 C CNN
	1    5200 4350
	0    -1   -1   0   
$EndComp
Wire Wire Line
	4850 4050 5050 4050
Connection ~ 4850 4050
Wire Wire Line
	4850 4350 5050 4350
Connection ~ 4850 4350
Wire Wire Line
	4950 4200 5400 4200
Wire Wire Line
	5400 4200 5400 4350
Wire Wire Line
	5400 4350 5350 4350
Wire Wire Line
	5400 4200 5400 4050
Wire Wire Line
	5400 4050 5350 4050
Connection ~ 5400 4200
$Comp
L power:GND #PWR0112
U 1 1 6174E899
P 5500 4200
F 0 "#PWR0112" H 5500 3950 50  0001 C CNN
F 1 "GND" V 5505 4027 50  0000 C CNN
F 2 "" H 5500 4200 50  0001 C CNN
F 3 "" H 5500 4200 50  0001 C CNN
	1    5500 4200
	0    -1   -1   0   
$EndComp
Wire Wire Line
	5500 4200 5400 4200
Wire Wire Line
	3700 5450 3900 5450
Wire Wire Line
	3900 5650 3700 5650
Wire Wire Line
	3700 5550 3900 5550
Text Label 3900 5550 2    50   ~ 0
~BL
Wire Wire Line
	3900 5250 3700 5250
Text Label 3900 5750 2    50   ~ 0
A0
Text Label 3900 5850 2    50   ~ 0
A1
Wire Wire Line
	3900 5750 3700 5750
Wire Wire Line
	3900 5850 3700 5850
$Comp
L power:GND #PWR0113
U 1 1 61871659
P 1950 2200
F 0 "#PWR0113" H 1950 1950 50  0001 C CNN
F 1 "GND" H 1955 2027 50  0000 C CNN
F 2 "" H 1950 2200 50  0001 C CNN
F 3 "" H 1950 2200 50  0001 C CNN
	1    1950 2200
	1    0    0    -1  
$EndComp
Wire Wire Line
	1950 2200 1950 2100
$Comp
L power:GND #PWR0114
U 1 1 61879560
P 3950 2200
F 0 "#PWR0114" H 3950 1950 50  0001 C CNN
F 1 "GND" H 3955 2027 50  0000 C CNN
F 2 "" H 3950 2200 50  0001 C CNN
F 3 "" H 3950 2200 50  0001 C CNN
	1    3950 2200
	1    0    0    -1  
$EndComp
$Comp
L power:GND #PWR0115
U 1 1 618817A2
P 5950 2200
F 0 "#PWR0115" H 5950 1950 50  0001 C CNN
F 1 "GND" H 5955 2027 50  0000 C CNN
F 2 "" H 5950 2200 50  0001 C CNN
F 3 "" H 5950 2200 50  0001 C CNN
	1    5950 2200
	1    0    0    -1  
$EndComp
Wire Wire Line
	5950 2200 5950 2100
$Comp
L power:GND #PWR0116
U 1 1 61889E4D
P 7950 2200
F 0 "#PWR0116" H 7950 1950 50  0001 C CNN
F 1 "GND" H 7955 2027 50  0000 C CNN
F 2 "" H 7950 2200 50  0001 C CNN
F 3 "" H 7950 2200 50  0001 C CNN
	1    7950 2200
	1    0    0    -1  
$EndComp
Wire Wire Line
	7950 2200 7950 2100
Wire Wire Line
	1950 2100 1850 2100
Wire Wire Line
	1850 2100 1850 2050
Connection ~ 1950 2100
Wire Wire Line
	1950 2100 1950 2050
Wire Wire Line
	3950 2200 3950 2100
Wire Wire Line
	3850 2050 3850 2100
Wire Wire Line
	3850 2100 3950 2100
Connection ~ 3950 2100
Wire Wire Line
	3950 2100 3950 2050
Wire Wire Line
	5850 2050 5850 2100
Wire Wire Line
	5850 2100 5950 2100
Connection ~ 5950 2100
Wire Wire Line
	5950 2100 5950 2050
Wire Wire Line
	7850 2050 7850 2100
Wire Wire Line
	7850 2100 7950 2100
Connection ~ 7950 2100
Wire Wire Line
	7950 2100 7950 2050
Text Label 3950 3650 2    50   ~ 0
CU
Wire Wire Line
	3950 3650 3700 3650
Text Label 3950 3750 2    50   ~ 0
CUE
Wire Wire Line
	3950 3750 3700 3750
Wire Wire Line
	3700 3550 3950 3550
Text Label 3950 3550 2    50   ~ 0
~WR1
Text Label 3900 5950 2    50   ~ 0
~WR2
Wire Wire Line
	3700 5950 3900 5950
Text Label 4200 3950 2    50   ~ 0
~CLR
Wire Wire Line
	3950 4050 3700 4050
Wire Wire Line
	3700 3950 4200 3950
Wire Wire Line
	3700 3850 3950 3850
Text Label 3900 4450 2    50   ~ 0
~WR3
Wire Wire Line
	3700 4450 3900 4450
Text Label 3900 4550 2    50   ~ 0
~WR4
Wire Wire Line
	3700 4550 3900 4550
Wire Wire Line
	3700 4650 3900 4650
Wire Wire Line
	3700 4750 3900 4750
Wire Wire Line
	3700 4850 3900 4850
Text Label 3900 4650 2    50   ~ 0
D4
Text Label 3900 4750 2    50   ~ 0
D5
Text Label 3900 4850 2    50   ~ 0
D6
Wire Wire Line
	3700 4950 3900 4950
Text Label 3900 4950 2    50   ~ 0
D3
$Comp
L Device:C C1
U 1 1 61A056D9
P 6250 4250
F 0 "C1" H 6100 4350 50  0000 C CNN
F 1 "2.2uF" H 6100 4150 50  0000 C CNN
F 2 "Capacitor_SMD:C_0603_1608Metric_Pad1.08x0.95mm_HandSolder" H 6288 4100 50  0001 C CNN
F 3 "~" H 6250 4250 50  0001 C CNN
	1    6250 4250
	1    0    0    -1  
$EndComp
Wire Wire Line
	6600 4050 6250 4050
Wire Wire Line
	6250 4050 6250 4100
Wire Wire Line
	6250 4400 6250 4450
Wire Wire Line
	6250 4450 6600 4450
$Comp
L Device:C C4
U 1 1 6168EDF9
P 6600 4250
F 0 "C4" H 6450 4350 50  0000 C CNN
F 1 "2.2uF" H 6450 4150 50  0000 C CNN
F 2 "Capacitor_SMD:C_0603_1608Metric_Pad1.08x0.95mm_HandSolder" H 6638 4100 50  0001 C CNN
F 3 "~" H 6600 4250 50  0001 C CNN
	1    6600 4250
	1    0    0    -1  
$EndComp
Wire Bus Line
	1650 2450 9700 2450
$EndSCHEMATC
